…
``` r
instacart %>% 
  group_by(product_id) %>% 
  summarize(
    n_obs = n(),
    n_unique = n_distinct(product_id)
  )
```

    ## `summarise()` ungrouping output (override with `.groups` argument)

    ## # A tibble: 39,123 x 3
    ##    product_id n_obs n_unique
    ##         <int> <int>    <int>
    ##  1          1    76        1
    ##  2          2     4        1
    ##  3          3     6        1
    ##  4          4    22        1
    ##  5          5     1        1
    ##  6          7     1        1
    ##  7          8    13        1
    ##  8          9     5        1
    ##  9         10   119        1
    ## 10         11     2        1
    ## # … with 39,113 more rows
…
